…
figure out subsets

```r
contig.lengths_tab <- contig.lengths_tab %>% arrange(desc(length)) %>%
  mutate(cum_length=cumsum(length)) %>%
  mutate(group=floor((1 + cum_length/100000000)))

contig.lengths_tab
```

```
## # A tibble: 11,330 x 4
##    name        length cum_length group
##    <chr>        <dbl>      <dbl> <dbl>
##  1 445_pilon 16254951   16254951     1
##  2 345_pilon 15331457   31586408     1
##  3 268_pilon 12566597   44153005     1
##  4 264_pilon 12485716   56638721     1
##  5 266_pilon 11869767   68508488     1
##  6 265_pilon 10935069   79443557     1
##  7 606_pilon 10588550   90032107     1
##  8 316_pilon 10358023  100390130     2
##  9 353_pilon 10280650  110670780     2
## 10 262_pilon  9808046  120478826     2
## # … with 11,320 more rows
```
…
